1. sshd permisiion authenticatio :yes
 restrt sshd service

2. vi suudo root permissions user(ubuntu/devops/jenkins)
3.in new machin jenkins and docker have to be installed via sh

4. ssk-keygen

5. ssh-copy-id user@public ip of new machine

6. scp jobs form existing container machine to new machine


   56  sudo su - ubuntu
   57  cd /var/lib/docker/volumes/jenkins_home/_data/
   58  ls
   59  cd jobs/
   60  ls
   61  cd Devops/
   62  ls
   63  cd jobs/
   64  ls
   65  cd ../../..
   66  ls
   67  sudo scp -r jobs/* ubuntu@13.235.0.185:/opt/jobs
   68  ssh keygen
   69  ssh -keygen
   70  ssh-keygen
   71  ssh-copy-id ubuntu@13.235.0.185
   72  sudo ssh-copy-id ubuntu@13.235.0.185
   73  cd /etc/ssh/
   74  ls
   75  vi sshd_config
   76  sudo ssh-copy-id ubuntu@13.235.0.185
   77  sudo scp -r jobs/* ubuntu@13.235.0.185:/opt/jobs

   80  sudo scp -r /var/lib/docker/volumes/jenkins_home/_data/jobs/* ubuntu@13.235.0.185:/home/ubuntu/
   81  history


7. restart jenkins service

